<?xml version="1.0" encoding="utf-8"?>
<COLLADA xmlns="http://www.collada.org/2005/11/COLLADASchema" version="1.4.1" xmlns:xsi="http://www.w3.org/2001/XMLSchema-instance">
  <asset>
    <contributor>
      <author>Blender User</author>
      <authoring_tool>Blender 2.83.1 commit date:2020-06-25, commit time:09:47, hash:8289fc688b3e</authoring_tool>
    </contributor>
    <created>2020-07-05T16:59:22</created>
    <modified>2020-07-05T16:59:22</modified>
    <unit name="meter" meter="1"/>
    <up_axis>Z_UP</up_axis>
  </asset>
  <library_cameras>
    <camera id="Camera-camera" name="Camera">
      <optics>
        <technique_common>
          <perspective>
            <xfov sid="xfov">39.59775</xfov>
            <aspect_ratio>1.777778</aspect_ratio>
            <znear sid="znear">0.1</znear>
            <zfar sid="zfar">100</zfar>
          </perspective>
        </technique_common>
      </optics>
      <extra>
        <technique profile="blender">
          <shiftx sid="shiftx" type="float">0</shiftx>
          <shifty sid="shifty" type="float">0</shifty>
          <dof_distance sid="dof_distance" type="float">10</dof_distance>
        </technique>
      </extra>
    </camera>
  </library_cameras>
  <library_lights>
    <light id="Light-light" name="Light">
      <technique_common>
        <point>
          <color sid="color">1000 1000 1000</color>
          <constant_attenuation>1</constant_attenuation>
          <linear_attenuation>0</linear_attenuation>
          <quadratic_attenuation>0.00111109</quadratic_attenuation>
        </point>
      </technique_common>
      <extra>
        <technique profile="blender">
          <type sid="type" type="int">0</type>
          <flag sid="flag" type="int">0</flag>
          <mode sid="mode" type="int">1</mode>
          <gamma sid="blender_gamma" type="float">1</gamma>
          <red sid="red" type="float">1</red>
          <green sid="green" type="float">1</green>
          <blue sid="blue" type="float">1</blue>
          <shadow_r sid="blender_shadow_r" type="float">0</shadow_r>
          <shadow_g sid="blender_shadow_g" type="float">0</shadow_g>
          <shadow_b sid="blender_shadow_b" type="float">0</shadow_b>
          <energy sid="blender_energy" type="float">1000</energy>
          <dist sid="blender_dist" type="float">29.99998</dist>
          <spotsize sid="spotsize" type="float">75</spotsize>
          <spotblend sid="spotblend" type="float">0.15</spotblend>
          <att1 sid="att1" type="float">0</att1>
          <att2 sid="att2" type="float">1</att2>
          <falloff_type sid="falloff_type" type="int">2</falloff_type>
          <clipsta sid="clipsta" type="float">0.04999995</clipsta>
          <clipend sid="clipend" type="float">30.002</clipend>
          <bias sid="bias" type="float">1</bias>
          <soft sid="soft" type="float">3</soft>
          <bufsize sid="bufsize" type="int">2880</bufsize>
          <samp sid="samp" type="int">3</samp>
          <buffers sid="buffers" type="int">1</buffers>
          <area_shape sid="area_shape" type="int">1</area_shape>
          <area_size sid="area_size" type="float">0.1</area_size>
          <area_sizey sid="area_sizey" type="float">0.1</area_sizey>
          <area_sizez sid="area_sizez" type="float">1</area_sizez>
        </technique>
      </extra>
    </light>
  </library_lights>
  <library_effects>
    <effect id="Materiais-effect">
      <profile_COMMON>
        <technique sid="common">
          <lambert>
            <emission>
              <color sid="emission">0 0 0 1</color>
            </emission>
            <diffuse>
              <color sid="diffuse">0.09084171 0.09084171 0.09084173 1</color>
            </diffuse>
            <index_of_refraction>
              <float sid="ior">1.45</float>
            </index_of_refraction>
          </lambert>
        </technique>
      </profile_COMMON>
    </effect>
  </library_effects>
  <library_images/>
  <library_materials>
    <material id="Materiais-material" name="Materiais">
      <instance_effect url="#Materiais-effect"/>
    </material>
  </library_materials>
  <library_geometries>
    <geometry id="Suporte_Sup_Link-mesh" name="Suporte Sup Link">
      <mesh>
        <source id="Suporte_Sup_Link-mesh-positions">
          <float_array id="Suporte_Sup_Link-mesh-positions-array" count="411">-0.198 0.07126998 0.71 -0.198 0.07126998 0.44 -0.198 0.10127 0.71 -0.198 0.10127 0.44 -0.198 0.10127 0.14 -0.198 0.10127 0.41 -0.198 0.07126998 0.14 -0.198 0.07126998 0.41 -0.198 0.30127 0.41 -0.198 0.30127 0.44 -0.198 -0.1287299 0.41 -0.198 -0.1287299 0.44 -0.198 -0.1287299 0.71 -0.198 -0.15873 0.71 -0.198 -0.15873 0.44 -0.198 -0.15873 0.14 -0.198 -0.1287299 0.14 -0.198 -0.15873 0.4095852 -0.198 -0.1287299 0.4095852 0.202 0.07126998 0.14 0.202 0.07126998 0.41 0.202 0.10127 0.14 0.202 0.10127 0.41 0.202 0.07126998 0.71 0.202 0.10127 0.71 0.202 0.07126998 0.44 0.202 0.10127 0.44 0.202 0.30127 0.44 0.202 0.30127 0.41 0.202 -0.1287299 0.44 0.202 -0.1287299 0.41 0.202 -0.15873 0.44 0.202 -0.15873 0.71 0.202 -0.1287299 0.71 0.202 -0.1287299 0.4095852 0.202 -0.1287299 0.14 0.202 -0.15873 0.4095852 0.202 -0.15873 0.14 0.232 0.07126998 0.14 0.232 0.07126998 0.41 -0.228 0.07126998 0.14 -0.228 0.07126998 0.41 -0.228 -0.1287299 0.14 -0.228 -0.1287299 0.41 0.232 -0.1287299 0.14 0.232 -0.1287299 0.41 -0.198 0.30127 0.14 -0.198 0.33127 0.14 -0.198 0.33127 0.41 0.202 0.33127 0.41 0.202 0.33127 0.14 0.202 0.30127 0.14 0.232 0.10127 0.41 0.232 0.10127 0.14 0.232 0.10127 0.44 0.232 0.10127 0.74 -0.228 0.10127 0.44 -0.228 0.10127 0.74 0.20225 0.10127 0.74 -0.2275 0.33077 0.14 -0.1985 0.33077 0.14 -0.2275 0.33077 0.44 -0.1985 0.33077 0.44 -0.1985 0.30177 0.14 -0.1985 0.30177 0.44 -0.2275 0.30177 0.44 -0.2275 0.30177 0.14 -0.228 0.33127 0.14 -0.228 0.33127 0.44 0.232 0.33127 0.44 0.232 0.33127 0.14 -0.228 -0.15873 0.14 -0.228 -0.15873 0.74 -0.228 0.30127 0.14 -0.228 0.30127 0.41 -0.228 0.10127 0.41 -0.228 -0.1287299 0.44 -0.228 0.07126998 0.44 -0.228 0.10127 0.14 -0.228 0.07126998 0.71 -0.228 -0.12898 0.74 -0.228 -0.1287299 0.71 0.2025 0.33077 0.44 0.2315 0.30177 0.44 0.2025 0.30177 0.44 0.2315 0.33077 0.44 -0.198 -0.1287299 0.74 -0.198 0.07126998 0.74 0.202 0.07126998 0.74 0.202 -0.1287299 0.74 -0.1985 0.1007699 0.74 -0.2275 0.1007699 0.74 -0.1985 0.1007699 0.14 -0.2275 0.1007699 0.14 -0.1985 0.07176995 0.74 -0.1985 0.07176995 0.14 -0.2275 0.07176995 0.74 -0.2275 0.07176995 0.14 0.20225 -0.12898 0.74 -0.2275 -0.12923 0.74 -0.1985 -0.12923 0.74 -0.2275 -0.15823 0.74 -0.1985 -0.15823 0.74 0.20225 -0.15873 0.74 0.2315 0.1007699 0.74 0.2315 0.07176995 0.74 0.2025 0.1007699 0.74 0.2025 0.07176995 0.74 0.232 -0.12898 0.74 0.2025 -0.15823 0.74 0.2315 -0.15823 0.74 0.232 -0.15873 0.74 0.2315 -0.12923 0.74 0.2025 -0.12923 0.74 0.232 -0.15873 0.14 -0.1985 -0.12923 0.14 -0.2275 -0.12923 0.14 -0.1985 -0.15823 0.14 -0.2275 -0.15823 0.14 0.232 -0.1287299 0.44 0.232 -0.1287299 0.71 0.232 0.07126998 0.44 0.232 0.07126998 0.71 0.232 0.30127 0.14 0.232 0.30127 0.41 0.2315 -0.12923 0.14 0.2025 -0.12923 0.14 0.2315 -0.15823 0.14 0.2025 -0.15823 0.14 0.2315 0.1007699 0.14 0.2025 0.1007699 0.14 0.2315 0.07176995 0.14 0.2025 0.07176995 0.14 0.2025 0.33077 0.14 0.2315 0.33077 0.14 0.2315 0.30177 0.14 0.2025 0.30177 0.14</float_array>
          <technique_common>
            <accessor source="#Suporte_Sup_Link-mesh-positions-array" count="137" stride="3">
              <param name="X" type="float"/>
              <param name="Y" type="float"/>
              <param name="Z" type="float"/>
            </accessor>
          </technique_common>
        </source>
        <source id="Suporte_Sup_Link-mesh-normals">
          <float_array id="Suporte_Sup_Link-mesh-normals-array" count="93">1 0 0 -1 0 0 0 -1 0 0 1 0 0 1 6.20881e-7 0 1 2.48353e-6 -1 1.65568e-6 0 -1 -9.19825e-7 0 -1 -5.17399e-6 0 0 0 -1 0 0 1 -1.21348e-6 0 1 1.29577e-4 0 1 3.01078e-5 0 1 -1.29577e-4 0 1 0 0 1 -1.16424e-5 0 1 6.4722e-5 0 1 0 0 1 2.5692e-4 0 1 -2.5692e-4 0 1 -2.5692e-4 0 1 3.20545e-7 0 1 2.5692e-4 0 1 -5.13809e-4 0 1 -5.1381e-4 0 1 0 -1 1.0435e-6 1 1.14978e-6 0 1 -1.65569e-6 0 1 -3.31137e-6 0 1 3.31137e-5 0</float_array>
          <technique_common>
            <accessor source="#Suporte_Sup_Link-mesh-normals-array" count="31" stride="3">
              <param name="X" type="float"/>
              <param name="Y" type="float"/>
              <param name="Z" type="float"/>
            </accessor>
          </technique_common>
        </source>
        <vertices id="Suporte_Sup_Link-mesh-vertices">
          <input semantic="POSITION" source="#Suporte_Sup_Link-mesh-positions"/>
        </vertices>
        <triangles material="Materiais-material" count="314">
          <input semantic="VERTEX" source="#Suporte_Sup_Link-mesh-vertices" offset="0"/>
          <input semantic="NORMAL" source="#Suporte_Sup_Link-mesh-normals" offset="1"/>
          <p>0 0 1 0 2 0 2 0 1 0 3 0 4 0 5 0 6 0 6 0 5 0 7 0 8 0 9 0 5 0 5 0 9 0 3 0 5 0 3 0 7 0 7 0 3 0 1 0 7 0 1 0 10 0 10 0 1 0 11 0 12 0 13 0 11 0 11 0 13 0 14 0 15 0 16 0 17 0 17 0 16 0 18 0 19 1 20 1 21 1 21 1 20 1 22 1 23 1 24 1 25 1 25 1 24 1 26 1 27 1 28 1 26 1 26 1 28 1 22 1 26 1 22 1 25 1 25 1 22 1 20 1 25 1 20 1 29 1 29 1 20 1 30 1 31 1 32 1 29 1 29 1 32 1 33 1 34 1 35 1 36 1 36 1 35 1 37 1 19 2 38 2 20 2 20 2 38 2 39 2 40 2 6 2 41 2 41 2 6 2 7 2 16 3 42 3 18 3 18 3 42 3 43 3 18 3 43 3 10 3 44 3 35 3 45 3 45 3 35 3 34 3 45 3 34 3 30 3 30 3 34 3 18 3 30 3 18 3 29 3 29 3 18 3 10 3 29 3 10 3 11 3 46 0 47 0 8 0 8 0 47 0 48 0 49 1 50 1 28 1 28 1 50 1 51 1 52 3 53 3 22 3 22 3 53 3 21 3 54 3 26 3 55 3 55 3 26 3 24 3 3 3 56 3 2 3 2 3 56 3 57 3 2 4 57 4 24 4 24 3 57 3 58 3 24 3 58 3 55 3 59 2 60 2 61 2 61 2 60 2 62 2 60 1 63 1 62 1 62 1 63 1 64 1 64 3 63 3 65 3 65 3 63 3 66 3 47 3 67 3 48 3 48 3 67 3 68 3 48 5 68 5 49 5 49 3 68 3 69 3 49 3 69 3 50 3 50 3 69 3 70 3 42 1 71 1 43 1 43 6 71 6 72 6 67 1 73 1 68 1 68 7 73 7 74 7 68 1 74 1 56 1 56 1 74 1 75 1 76 1 77 1 41 1 78 1 40 1 75 1 75 1 40 1 41 1 75 1 41 1 56 1 56 1 41 1 77 1 56 1 77 1 57 1 57 1 77 1 79 1 57 1 79 1 80 1 80 1 79 1 81 1 80 1 81 1 72 1 72 1 81 1 76 1 72 8 76 8 43 8 43 1 76 1 41 1 74 2 73 2 8 2 8 2 73 2 46 2 65 0 66 0 61 0 61 0 66 0 59 0 60 9 47 9 63 9 63 9 47 9 46 9 63 9 46 9 66 9 66 9 46 9 73 9 66 9 73 9 59 9 59 9 73 9 67 9 59 9 67 9 60 9 60 9 67 9 47 9 61 10 62 10 68 10 68 10 62 10 82 10 68 10 82 10 69 10 26 11 83 11 27 11 27 10 83 10 84 10 27 10 84 10 9 10 56 10 3 10 9 10 26 10 54 10 83 10 83 12 54 12 69 12 83 13 69 13 85 13 85 10 69 10 82 10 61 10 68 10 65 10 65 14 68 14 56 14 65 10 56 10 64 10 64 10 56 10 9 10 64 10 9 10 62 10 62 15 9 15 84 15 62 10 84 10 82 10 74 9 8 9 75 9 75 9 8 9 5 9 4 3 78 3 5 3 5 3 78 3 75 3 86 0 12 0 87 0 87 0 12 0 0 0 23 1 33 1 88 1 88 1 33 1 89 1 90 2 91 2 92 2 92 2 91 2 93 2 94 1 90 1 95 1 95 1 90 1 92 1 96 3 94 3 97 3 97 3 94 3 95 3 1 2 0 2 77 2 77 2 0 2 79 2 91 0 96 0 93 0 93 0 96 0 97 0 57 10 91 10 90 10 57 10 90 10 58 10 88 16 89 16 98 16 98 10 89 10 86 10 98 17 58 17 88 17 88 18 58 18 90 18 88 10 90 10 87 10 87 19 90 19 94 19 87 10 94 10 96 10 91 20 57 20 96 20 96 10 57 10 80 10 96 10 80 10 87 10 80 10 99 10 100 10 99 21 80 21 101 21 101 10 80 10 72 10 101 10 72 10 102 10 102 10 72 10 103 10 102 22 103 22 100 22 100 10 103 10 98 10 100 10 98 10 80 10 80 10 98 10 86 10 80 10 86 10 87 10 55 23 104 23 105 23 104 10 55 10 106 10 106 10 55 10 58 10 106 24 58 24 107 24 107 10 58 10 98 10 107 10 98 10 105 10 105 10 98 10 108 10 105 10 108 10 55 10 109 10 103 10 110 10 110 10 103 10 111 10 110 19 111 19 112 19 112 10 111 10 108 10 112 10 108 10 113 10 113 10 108 10 98 10 113 25 98 25 109 25 109 10 98 10 103 10 92 9 4 9 95 9 95 9 4 9 6 9 95 9 6 9 97 9 97 9 6 9 40 9 97 9 40 9 93 9 93 9 40 9 78 9 93 9 78 9 92 9 92 9 78 9 4 9 79 9 0 9 81 9 81 9 0 9 12 9 81 3 12 3 76 3 76 3 12 3 11 3 36 2 37 2 114 2 72 2 71 2 17 2 17 2 71 2 15 2 114 2 111 2 36 2 36 2 111 2 31 2 36 2 31 2 17 2 17 2 31 2 14 2 17 2 14 2 72 2 72 2 14 2 13 2 72 2 13 2 103 2 103 2 13 2 32 2 103 26 32 26 111 26 111 2 32 2 31 2 100 2 99 2 115 2 115 2 99 2 116 2 102 1 100 1 117 1 117 1 100 1 115 1 101 3 102 3 118 3 118 3 102 3 117 3 99 0 101 0 116 0 116 0 101 0 118 0 115 9 16 9 117 9 117 9 16 9 15 9 117 9 15 9 118 9 118 9 15 9 71 9 118 9 71 9 116 9 116 9 71 9 42 9 116 9 42 9 115 9 115 9 42 9 16 9 33 9 32 9 12 9 12 9 32 9 13 9 89 3 33 3 86 3 86 3 33 3 12 3 29 3 33 3 119 3 119 3 33 3 120 3 114 0 44 0 45 0 119 27 120 27 111 27 38 0 53 0 39 0 39 0 53 0 52 0 121 0 54 0 122 0 122 28 54 28 55 28 122 0 55 0 120 0 120 0 55 0 108 0 120 0 108 0 111 0 123 0 70 0 124 0 124 29 70 29 69 29 124 0 69 0 52 0 52 0 69 0 54 0 52 0 54 0 39 0 39 0 54 0 121 0 39 0 121 0 45 0 45 0 121 0 119 0 45 30 119 30 114 30 114 0 119 0 111 0 112 2 113 2 125 2 125 2 113 2 126 2 110 1 112 1 127 1 127 1 112 1 125 1 109 3 110 3 128 3 128 3 110 3 127 3 113 0 109 0 126 0 126 0 109 0 128 0 125 9 44 9 127 9 127 9 44 9 114 9 127 9 114 9 128 9 128 9 114 9 37 9 128 9 37 9 126 9 126 9 37 9 35 9 126 9 35 9 125 9 125 9 35 9 44 9 23 9 122 9 33 9 33 9 122 9 120 9 104 2 106 2 129 2 129 2 106 2 130 2 105 1 104 1 131 1 131 1 104 1 129 1 107 3 105 3 132 3 132 3 105 3 131 3 122 2 23 2 121 2 121 2 23 2 25 2 106 0 107 0 130 0 130 0 107 0 132 0 130 9 21 9 129 9 129 9 21 9 53 9 129 9 53 9 131 9 131 9 53 9 38 9 131 9 38 9 132 9 132 9 38 9 19 9 132 9 19 9 130 9 130 9 19 9 21 9 23 2 88 2 0 2 0 2 88 2 87 2 24 9 23 9 2 9 2 9 23 9 0 9 28 9 124 9 22 9 22 9 124 9 52 9 28 2 51 2 124 2 124 2 51 2 123 2 133 2 134 2 82 2 82 2 134 2 85 2 134 1 135 1 85 1 85 1 135 1 83 1 83 3 135 3 84 3 84 3 135 3 136 3 84 0 136 0 82 0 82 0 136 0 133 0 133 9 50 9 134 9 134 9 50 9 70 9 134 9 70 9 135 9 135 9 70 9 123 9 135 9 123 9 136 9 136 9 123 9 51 9 136 9 51 9 133 9 133 9 51 9 50 9 8 9 48 9 28 9 28 9 48 9 49 9 9 2 8 2 27 2 27 2 8 2 28 2 10 9 43 9 7 9 7 9 43 9 41 9 76 10 11 10 77 10 77 10 11 10 1 10 45 9 30 9 39 9 39 9 30 9 20 9 29 10 119 10 25 10 25 10 119 10 121 10 31 10 29 10 14 10 14 10 29 10 11 10 34 9 36 9 18 9 18 9 36 9 17 9</p>
        </triangles>
      </mesh>
    </geometry>
  </library_geometries>
  <library_visual_scenes>
    <visual_scene id="Scene" name="Scene">
      <node id="Suporte_Sup_Link" name="Suporte Sup Link" type="NODE">
        <matrix sid="transform">1 0 0 0 0 1 0 0 0 0 1 0 0 0 0 1</matrix>
        <instance_geometry url="#Suporte_Sup_Link-mesh" name="Suporte Sup Link">
          <bind_material>
            <technique_common>
              <instance_material symbol="Materiais-material" target="#Materiais-material"/>
            </technique_common>
          </bind_material>
        </instance_geometry>
      </node>
      <node id="Camera" name="Camera" type="NODE">
        <matrix sid="transform">0.6859207 -0.3240135 0.6515582 7.358891 0.7276763 0.3054208 -0.6141704 -6.925791 0 0.8953956 0.4452714 4.958309 0 0 0 1</matrix>
        <instance_camera url="#Camera-camera"/>
      </node>
      <node id="Light" name="Light" type="NODE">
        <matrix sid="transform">-0.2908646 -0.7711008 0.5663932 4.076245 0.9551712 -0.1998834 0.2183912 1.005454 -0.05518906 0.6045247 0.7946723 5.903862 0 0 0 1</matrix>
        <instance_light url="#Light-light"/>
      </node>
    </visual_scene>
  </library_visual_scenes>
  <scene>
    <instance_visual_scene url="#Scene"/>
  </scene>
</COLLADA>